{
  "appId": "com.neoito.products",
  "appName": "Videos",
  "bundledWebRuntime": false,
  "webDir": "dist",
  "server": {
    "allowNavigation": [
      "example.org",
      "*.example.org",
      "192.0.2.1",
      "mapbox.com"
    ]
  }
}
